{
	"color": {
		"blue": {
			"100": {
				"value": {
					"r": 0.9372549057006836,
					"g": 0.9529411792755127,
					"b": 0.9843137264251709,
					"a": 1
				}
			},
			"200": {
				"value": {
					"r": 0.1882352977991104,
					"g": 0.40392157435417175,
					"b": 0.772549033164978,
					"a": 1
				}
			}
		},
		"green": {
			"100": {
				"value": {
					"r": 0.9411764740943909,
					"g": 0.9607843160629272,
					"b": 0.9215686321258545,
					"a": 1
				}
			},
			"200": {
				"value": {
					"r": 0.23137255012989044,
					"g": 0.4745098054409027,
					"b": 0.007843137718737125,
					"a": 1
				}
			}
		},
		"red": {
			"100": {
				"value": {
					"r": 0.9882352948188782,
					"g": 0.9411764740943909,
					"b": 0.9490196108818054,
					"a": 1
				}
			},
			"200": {
				"value": {
					"r": 0.8156862854957581,
					"g": 0.007843137718737125,
					"b": 0.10588235408067703,
					"a": 1
				}
			}
		},
		"brown": {
			"100": {
				"value": {
					"r": 0.9647058844566345,
					"g": 0.9333333373069763,
					"b": 0.9215686321258545,
					"a": 1
				}
			},
			"200": {
				"value": {
					"r": 0.6392157077789307,
					"g": 0.32549020648002625,
					"b": 0.18431372940540314,
					"a": 1
				}
			}
		},
		"dark-blue": {
			"value": {
				"r": 0.04313725605607033,
				"g": 0.125490203499794,
				"b": 0.1764705926179886,
				"a": 1
			}
		},
		"beige": {
			"100": {
				"value": {
					"r": 0.9686274528503418,
					"g": 0.9333333373069763,
					"b": 0.9098039269447327,
					"a": 1
				}
			},
			"200": {
				"value": {
					"r": 0.9529411792755127,
					"g": 0.8980392217636108,
					"b": 0.8666666746139526,
					"a": 1
				}
			}
		},
		"white": {
			"value": {
				"r": 1,
				"g": 1,
				"b": 1,
				"a": 1
			}
		},
		"grey": {
			"100": {
				"value": {
					"r": 0.9647058844566345,
					"g": 0.9686274528503418,
					"b": 0.9686274528503418,
					"a": 1
				}
			},
			"200": {
				"value": {
					"r": 0.8980392217636108,
					"g": 0.9058823585510254,
					"b": 0.9215686321258545,
					"a": 1
				}
			},
			"300": {
				"value": {
					"r": 0.4156862795352936,
					"g": 0.4627451002597809,
					"b": 0.48235294222831726,
					"a": 1
				}
			},
			"400": {
				"value": {
					"r": 0.2823529541492462,
					"g": 0.30588236451148987,
					"b": 0.3176470696926117,
					"a": 1
				}
			}
		},
		"transparent": {
			"value": {
				"r": 1,
				"g": 1,
				"b": 1,
				"a": 0
			}
		}
	}
}