{
	"color": {
		"text": {
			"default": {
				"value": "{color.dark-blue}"
			},
			"success": {
				"value": "{color.green.200}"
			},
			"warning": {
				"value": "{color.brown.200}"
			},
			"error": {
				"value": "{color.red.200}"
			},
			"disabled": {
				"value": "{color.grey.300}"
			},
			"secondary": {
				"value": "{color.grey.400}"
			},
			"info": {
				"value": "{color.blue.200}"
			}
		},
		"border": {
			"brand": {
				"value": "{color.dark-blue}"
			},
			"brand.hover": {
				"value": "{color.grey.400}"
			},
			"selected": {
				"value": "{color.dark-blue}"
			},
			"default": {
				"value": "{color.grey.400}"
			},
			"disabled": {
				"value": "{color.grey.200}"
			},
			"success": {
				"value": "{color.green.200}"
			},
			"warning": {
				"value": "{color.brown.200}"
			},
			"error": {
				"value": "{color.red.200}"
			},
			"info": {
				"value": "{color.blue.200}"
			}
		},
		"icon": {
			"success": {
				"value": "{color.green.200}"
			},
			"warning": {
				"value": "{color.brown.200}"
			},
			"error": {
				"value": "{color.red.200}"
			},
			"info": {
				"value": "{color.blue.200}"
			}
		},
		"bg": {
			"value": "{color.white}"
		},
		"bg.hover": {
			"value": "{color.grey.100}"
		},
		"secondary": {
			"value": "{color.transparent}"
		},
		"bg.secondary": {
			"value": "{color.grey.100}"
		},
		"bg.success": {
			"value": "{color.green.100}"
		},
		"bg.warning": {
			"value": "{color.brown.100}"
		},
		"bg.error": {
			"value": "{color.red.100}"
		},
		"bg.info": {
			"value": "{color.blue.100}"
		}
	},
	"space": {
		"0": {
			"value": 0
		},
		"100": {
			"value": 8
		},
		"150": {
			"value": 12
		},
		"200": {
			"value": 16
		},
		"300": {
			"value": 24
		},
		"400": {
			"value": 32
		},
		"500": {
			"value": 40
		},
		"600": {
			"value": 48
		},
		"700": {
			"value": 56
		},
		"800": {
			"value": 64
		},
		"900": {
			"value": 72
		},
		"1000": {
			"value": 80
		},
		"025": {
			"value": 2
		},
		"050": {
			"value": 4
		}
	},
	"radius": {
		"0": {
			"value": 0
		},
		"100": {
			"value": 8
		},
		"200": {
			"value": 16
		},
		"050": {
			"value": 4
		},
		"full": {
			"value": 9999
		}
	},
	"font": {
		"size": {
			"body-s": {
				"value": 14
			},
			"ui": {
				"value": 16
			}
		},
		"line-height": {
			"body-s": {
				"value": 18
			},
			"ui": {
				"value": 22
			}
		},
		"family": {
			"sans": {
				"value": "HKGrotesk"
			}
		},
		"weight": {
			"ui": {
				"value": 500
			}
		},
		"heading": {
			"large": {
				"bold": {
					"value": "String value"
				}
			}
		}
	},
	"border": {
		"width": {
			"0": {
				"value": 0
			},
			"1": {
				"value": 1
			},
			"2": {
				"value": 2
			},
			"3": {
				"value": 3
			}
		}
	}
}