{
	"name": "@bloom-kit/components",
	"$schema": "../../node_modules/nx/schemas/project-schema.json",
	"sourceRoot": "packages/components/src",
	"projectType": "library",
	"targets": {
		"start": {
			"executor": "@nx/vite:dev-server",
			"options": {
				"buildTarget": "components:build"
			}
		},
		"build": {
			"executor": "@nx/vite:build",
			"outputs": ["{options.outputPath}"],
			"options": {
				"outputPath": "packages/components/dist/",
				"includeDevDependenciesInPackageJson": false
			}
		},
		"publish": {
			"command": "node tools/scripts/publish.mjs components {args.ver} {args.tag}",
			"dependsOn": ["build"]
		},
		"test": {
			"executor": "@nx/vite:test",
			"outputs": ["{options.reportsDirectory}"],
			"options": {
				"passWithNoTests": true,
				"reportsDirectory": "../../coverage/packages/components"
			}
		},
		"lint": {
			"executor": "@nx/eslint:lint",
			"outputs": ["{options.outputFile}"],
			"options": {
				"lintFilePatterns": [
					"packages/components/**/*.ts",
					"packages/components/package.json"
				]
			}
		},
		"storybook": {
			"executor": "@nx/storybook:storybook",
			"options": {
				"port": 4400,
				"configDir": "packages/components/.storybook"
			},
			"configurations": {
				"ci": {
					"quiet": true
				}
			}
		},
		"build-storybook": {
			"executor": "@nx/storybook:build",
			"outputs": ["{options.outputDir}"],
			"dependsOn": ["@bloom-kit/tokens:build"],
			"options": {
				"outputDir": "dist/storybook/@bloom-kit/components",
				"configDir": "packages/components/.storybook"
			},
			"configurations": {
				"ci": {
					"quiet": true
				}
			}
		}
	},
	"tags": []
}
