{
	"components": {
		"loccitane": {
			"button": {
				"primary": {
					"text": {
						"default": {
							"value": "{color.dark-blue}"
						},
						"hover": {
							"value": "{color.dark-blue}"
						},
						"disabled": {
							"value": "{color.text.disabled}"
						}
					},
					"bg": {
						"default": {
							"value": "{color.yellow.400}"
						},
						"hover": {
							"value": "{color.yellow.300}"
						},
						"disabled": {
							"value": "{color.grey.100}"
						}
					},
					"border-width": {
						"disabled": {
							"value": "{border.width.1}"
						}
					},
					"border": {
						"default": {
							"value": "{color.transparent}"
						},
						"hover": {
							"value": "{color.transparent}"
						},
						"disabled": {
							"value": "{color.border.disabled}"
						}
					}
				},
				"radius": {
					"value": "{radius.0}"
				},
				"secondary": {
					"text": {
						"default": {
							"value": "{color.dark-blue}"
						},
						"hover": {
							"value": "{color.dark-blue}"
						},
						"disabled": {
							"value": "{color.text.disabled}"
						}
					},
					"bg": {
						"default": {
							"value": "{color.off-white}"
						},
						"hover": {
							"value": "{color.grey.100}"
						},
						"disabled": {
							"value": "{color.grey.100}"
						}
					},
					"border-width": {
						"disabled": {
							"value": "{border.width.1}"
						},
						"default": {
							"value": "{border.width.1}"
						}
					},
					"border": {
						"default": {
							"value": "{color.dark-blue}"
						},
						"hover": {
							"value": "{color.dark-blue}"
						},
						"disabled": {
							"value": "{color.border.disabled}"
						}
					}
				},
				"tertiary": {
					"text": {
						"default": {
							"value": "{color.dark-blue}"
						},
						"hover": {
							"value": "{color.dark-blue}"
						},
						"disabled": {
							"value": "{color.text.disabled}"
						}
					},
					"bg": {
						"default": {
							"value": "{color.off-white}"
						},
						"hover": {
							"value": "{color.grey.100}"
						},
						"disabled": {
							"value": "{color.grey.100}"
						}
					},
					"border-width": {
						"disabled": {
							"value": "{border.width.1}"
						},
						"default": {
							"value": "{border.width.1}"
						}
					},
					"border": {
						"default": {
							"value": "{color.dark-blue}"
						},
						"hover": {
							"value": "{color.dark-blue}"
						},
						"disabled": {
							"value": "{color.border.disabled}"
						}
					}
				},
				"padding-inline": {
					"value": "{space.300}"
				},
				"padding-block": {
					"value": "{space.100}"
				}
			},
			"card": {
				"radius": {
					"value": "{radius.0}"
				},
				"border": {
					"width": {
						"value": "{border.width.1}"
					}
				}
			},
			"tag": {
				"bg": {
					"default": {
						"value": "{color.bg}"
					},
					"hover": {
						"value": "{color.grey.100}"
					},
					"active": {
						"value": "{color.dark-blue}"
					},
					"disabled": {
						"value": "{color.grey.100}"
					}
				},
				"text": {
					"default": {
						"value": "{color.text.default}"
					},
					"hover": {
						"value": "{color.text.default}"
					},
					"active": {
						"value": "{color.white}"
					},
					"disabled": {
						"value": "{color.text.disabled}"
					}
				},
				"border": {
					"default": {
						"value": "{color.border.default}"
					},
					"hover": {
						"value": "{color.border.default}"
					},
					"active": {
						"value": "{color.transparent}"
					},
					"disabled": {
						"value": "{color.border.disabled}"
					}
				}
			},
			"feedback-message": {
				"radius": {
					"value": "{radius.0}"
				}
			},
			"wishlist-button": {
				"radius": {
					"value": "{radius.0}"
				},
				"bg": {
					"default": {
						"value": "{color.off-white}"
					},
					"selected": {
						"value": "{color.yellow.200}"
					}
				},
				"border": {
					"value": "{color.border.default}"
				},
				"width": {
					"value": 40
				},
				"icon": {
					"fill": {
						"hover": {
							"value": "{color.yellow.300}"
						},
						"selected": {
							"value": "{color.yellow.400}"
						}
					},
					"width": {
						"value": 24
					},
					"stroke": {
						"value": "{color.dark-blue}"
					}
				}
			}
		},
		"erborian-us": {
			"button": {
				"primary": {
					"text": {
						"default": {
							"value": "{color.white}"
						},
						"hover": {
							"value": "{color.white}"
						},
						"disabled": {
							"value": "{color.text.disabled}"
						}
					},
					"bg": {
						"default": {
							"value": "{color.dark-blue}"
						},
						"hover": {
							"value": "{color.grey.400}"
						},
						"disabled": {
							"value": "{color.grey.100}"
						}
					},
					"border-width": {
						"disabled": {
							"value": "{border.width.1}"
						}
					},
					"border": {
						"default": {
							"value": "{color.transparent}"
						},
						"hover": {
							"value": "{color.transparent}"
						},
						"disabled": {
							"value": "{color.border.disabled}"
						}
					}
				},
				"radius": {
					"value": "{radius.0}"
				},
				"secondary": {
					"text": {
						"default": {
							"value": "{color.dark-blue}"
						},
						"hover": {
							"value": "{color.white}"
						},
						"disabled": {
							"value": "{color.text.disabled}"
						}
					},
					"bg": {
						"default": {
							"value": "{color.white}"
						},
						"hover": {
							"value": "{color.dark-blue}"
						},
						"disabled": {
							"value": "{color.grey.100}"
						}
					},
					"border-width": {
						"disabled": {
							"value": "{border.width.1}"
						},
						"default": {
							"value": "{border.width.1}"
						}
					},
					"border": {
						"default": {
							"value": "{color.dark-blue}"
						},
						"hover": {
							"value": "{color.transparent}"
						},
						"disabled": {
							"value": "{color.border.disabled}"
						}
					}
				},
				"tertiary": {
					"text": {
						"default": {
							"value": "{color.dark-blue}"
						},
						"hover": {
							"value": "{color.dark-blue}"
						},
						"disabled": {
							"value": "{color.text.disabled}"
						}
					},
					"bg": {
						"default": {
							"value": "{color.beige.200}"
						},
						"hover": {
							"value": "{color.beige.100}"
						},
						"disabled": {
							"value": "{color.grey.100}"
						}
					},
					"border-width": {
						"disabled": {
							"value": "{border.width.1}"
						},
						"default": {
							"value": "{border.width.1}"
						}
					},
					"border": {
						"default": {
							"value": "{color.transparent}"
						},
						"hover": {
							"value": "{color.transparent}"
						},
						"disabled": {
							"value": "{color.border.disabled}"
						}
					}
				},
				"padding-inline": {
					"value": "{space.300}"
				},
				"padding-block": {
					"value": "{space.150}"
				}
			},
			"card": {
				"radius": {
					"value": "{radius.0}"
				},
				"border": {
					"width": {
						"value": "{border.width.2}"
					}
				}
			},
			"tag": {
				"bg": {
					"default": {
						"value": "{color.bg}"
					},
					"hover": {
						"value": "{color.grey.100}"
					},
					"active": {
						"value": "{color.dark-blue}"
					},
					"disabled": {
						"value": "{color.grey.100}"
					}
				},
				"text": {
					"default": {
						"value": "{color.text.default}"
					},
					"hover": {
						"value": "{color.text.default}"
					},
					"active": {
						"value": "{color.white}"
					},
					"disabled": {
						"value": "{color.text.disabled}"
					}
				},
				"border": {
					"default": {
						"value": "{color.border.default}"
					},
					"hover": {
						"value": "{color.border.default}"
					},
					"active": {
						"value": "{color.transparent}"
					},
					"disabled": {
						"value": "{color.border.disabled}"
					}
				}
			},
			"feedback-message": {
				"radius": {
					"value": "{radius.0}"
				}
			},
			"wishlist-button": {
				"radius": {
					"value": "{radius.0}"
				},
				"bg": {
					"default": {
						"value": "{color.white}"
					},
					"selected": {
						"value": "{color.beige.100}"
					}
				},
				"border": {
					"value": "{color.border.default}"
				},
				"width": {
					"value": 48
				},
				"icon": {
					"fill": {
						"hover": {
							"value": "{color.grey.300}"
						},
						"selected": {
							"value": "{color.grey.400}"
						}
					},
					"width": {
						"value": 28
					},
					"stroke": {
						"value": "{color.dark-blue}"
					}
				}
			}
		},
		"erborian": {
			"button": {
				"primary": {
					"text": {
						"default": {
							"value": "{color.white}"
						},
						"hover": {
							"value": "{color.white}"
						},
						"disabled": {
							"value": "{color.text.disabled}"
						}
					},
					"bg": {
						"default": {
							"value": "{color.red.300}"
						},
						"hover": {
							"value": "{color.red.200}"
						},
						"disabled": {
							"value": "{color.grey.100}"
						}
					},
					"border-width": {
						"disabled": {
							"value": "{border.width.1}"
						}
					},
					"border": {
						"default": {
							"value": "{color.transparent}"
						},
						"hover": {
							"value": "{color.transparent}"
						},
						"disabled": {
							"value": "{color.border.disabled}"
						}
					}
				},
				"radius": {
					"value": "{radius.0}"
				},
				"secondary": {
					"text": {
						"default": {
							"value": "{color.dark-blue}"
						},
						"hover": {
							"value": "{color.dark-blue}"
						},
						"disabled": {
							"value": "{color.text.disabled}"
						}
					},
					"bg": {
						"default": {
							"value": "{color.beige.200}"
						},
						"hover": {
							"value": "{color.beige.100}"
						},
						"disabled": {
							"value": "{color.grey.100}"
						}
					},
					"border-width": {
						"disabled": {
							"value": "{border.width.1}"
						},
						"default": {
							"value": "{border.width.1}"
						}
					},
					"border": {
						"default": {
							"value": "{color.transparent}"
						},
						"hover": {
							"value": "{color.transparent}"
						},
						"disabled": {
							"value": "{color.border.disabled}"
						}
					}
				},
				"tertiary": {
					"text": {
						"default": {
							"value": "{color.dark-blue}"
						},
						"hover": {
							"value": "{color.white}"
						},
						"disabled": {
							"value": "{color.text.disabled}"
						}
					},
					"bg": {
						"default": {
							"value": "{color.white}"
						},
						"hover": {
							"value": "{color.red.300}"
						},
						"disabled": {
							"value": "{color.grey.100}"
						}
					},
					"border-width": {
						"disabled": {
							"value": "{border.width.1}"
						},
						"default": {
							"value": "{border.width.1}"
						}
					},
					"border": {
						"default": {
							"value": "{color.red.300}"
						},
						"hover": {
							"value": "{color.transparent}"
						},
						"disabled": {
							"value": "{color.border.disabled}"
						}
					}
				},
				"padding-inline": {
					"value": "{space.300}"
				},
				"padding-block": {
					"value": "{space.150}"
				}
			},
			"card": {
				"radius": {
					"value": "{radius.0}"
				},
				"border": {
					"width": {
						"value": "{border.width.2}"
					}
				}
			},
			"tag": {
				"bg": {
					"default": {
						"value": "{color.bg}"
					},
					"hover": {
						"value": "{color.grey.100}"
					},
					"active": {
						"value": "{color.beige.200}"
					},
					"disabled": {
						"value": "{color.grey.100}"
					}
				},
				"text": {
					"default": {
						"value": "{color.text.default}"
					},
					"hover": {
						"value": "{color.text.default}"
					},
					"active": {
						"value": "{color.text.default}"
					},
					"disabled": {
						"value": "{color.text.disabled}"
					}
				},
				"border": {
					"default": {
						"value": "{color.border.default}"
					},
					"hover": {
						"value": "{color.border.default}"
					},
					"active": {
						"value": "{color.transparent}"
					},
					"disabled": {
						"value": "{color.border.disabled}"
					}
				}
			},
			"feedback-message": {
				"radius": {
					"value": "{radius.0}"
				}
			},
			"wishlist-button": {
				"radius": {
					"value": "{radius.0}"
				},
				"bg": {
					"default": {
						"value": "{color.white}"
					},
					"selected": {
						"value": "{color.beige.100}"
					}
				},
				"border": {
					"value": "{color.border.default}"
				},
				"width": {
					"value": 48
				},
				"icon": {
					"fill": {
						"hover": {
							"value": "{color.red.200}"
						},
						"selected": {
							"value": "{color.red.300}"
						}
					},
					"width": {
						"value": 28
					},
					"stroke": {
						"value": "{color.dark-blue}"
					}
				}
			}
		},
		"melvita": {
			"button": {
				"primary": {
					"text": {
						"default": {
							"value": "{color.white}"
						},
						"hover": {
							"value": "{color.white}"
						},
						"disabled": {
							"value": "{color.text.disabled}"
						}
					},
					"bg": {
						"default": {
							"value": "{color.green.500}"
						},
						"hover": {
							"value": "{color.green.400}"
						},
						"disabled": {
							"value": "{color.grey.100}"
						}
					},
					"border-width": {
						"disabled": {
							"value": "{border.width.1}"
						}
					},
					"border": {
						"default": {
							"value": "{color.transparent}"
						},
						"hover": {
							"value": "{color.transparent}"
						},
						"disabled": {
							"value": "{color.transparent}"
						}
					}
				},
				"radius": {
					"value": "{radius.050}"
				},
				"secondary": {
					"text": {
						"default": {
							"value": "{color.green.500}"
						},
						"hover": {
							"value": "{color.green.500}"
						},
						"disabled": {
							"value": "{color.text.disabled}"
						}
					},
					"bg": {
						"default": {
							"value": "{color.pink.200}"
						},
						"hover": {
							"value": "{color.pink.100}"
						},
						"disabled": {
							"value": "{color.grey.100}"
						}
					},
					"border-width": {
						"disabled": {
							"value": "{border.width.1}"
						},
						"default": {
							"value": "{border.width.1}"
						}
					},
					"border": {
						"default": {
							"value": "{color.transparent}"
						},
						"hover": {
							"value": "{color.transparent}"
						},
						"disabled": {
							"value": "{color.transparent}"
						}
					}
				},
				"tertiary": {
					"text": {
						"default": {
							"value": "{color.green.500}"
						},
						"hover": {
							"value": "{color.green.500}"
						},
						"disabled": {
							"value": "{color.text.disabled}"
						}
					},
					"bg": {
						"default": {
							"value": "{color.white}"
						},
						"hover": {
							"value": "{color.green.200}"
						},
						"disabled": {
							"value": "{color.grey.100}"
						}
					},
					"border-width": {
						"disabled": {
							"value": "{border.width.1}"
						},
						"default": {
							"value": "{border.width.1}"
						}
					},
					"border": {
						"default": {
							"value": "{color.green.400}"
						},
						"hover": {
							"value": "{color.green.400}"
						},
						"disabled": {
							"value": "{color.transparent}"
						}
					}
				},
				"padding-inline": {
					"value": "{space.300}"
				},
				"padding-block": {
					"value": "{space.150}"
				}
			},
			"card": {
				"radius": {
					"value": "{radius.100}"
				},
				"border": {
					"width": {
						"value": "{border.width.1}"
					}
				}
			},
			"tag": {
				"bg": {
					"default": {
						"value": "{color.bg}"
					},
					"hover": {
						"value": "{color.grey.100}"
					},
					"active": {
						"value": "{color.green.400}"
					},
					"disabled": {
						"value": "{color.grey.100}"
					}
				},
				"text": {
					"default": {
						"value": "{color.text.default}"
					},
					"hover": {
						"value": "{color.text.default}"
					},
					"active": {
						"value": "{color.white}"
					},
					"disabled": {
						"value": "{color.text.disabled}"
					}
				},
				"border": {
					"default": {
						"value": "{color.border.default}"
					},
					"hover": {
						"value": "{color.border.default}"
					},
					"active": {
						"value": "{color.transparent}"
					},
					"disabled": {
						"value": "{color.border.disabled}"
					}
				}
			},
			"feedback-message": {
				"radius": {
					"value": "{radius.050}"
				}
			},
			"wishlist-button": {
				"radius": {
					"value": "{radius.050}"
				},
				"bg": {
					"default": {
						"value": "{color.white}"
					},
					"selected": {
						"value": "{color.pink.100}"
					}
				},
				"border": {
					"value": "{color.border.default}"
				},
				"width": {
					"value": 48
				},
				"icon": {
					"fill": {
						"hover": {
							"value": "{color.green.400}"
						},
						"selected": {
							"value": "{color.green.500}"
						}
					},
					"width": {
						"value": 28
					},
					"stroke": {
						"value": "{color.grey.400}"
					}
				}
			}
		}
	},
	"primitives": {
		"loccitane": {
			"color": {
				"dark-blue": {
					"value": {
						"r": 0,
						"g": 0.062745101749897,
						"b": 0.13333334028720856,
						"a": 1
					}
				},
				"off-white": {
					"value": {
						"r": 1,
						"g": 0.9960784316062927,
						"b": 0.9803921580314636,
						"a": 1
					}
				},
				"blue": {
					"100": {
						"value": {
							"r": 0.9372549057006836,
							"g": 0.9529411792755127,
							"b": 0.9843137264251709,
							"a": 1
						}
					},
					"200": {
						"value": {
							"r": 0.07058823853731155,
							"g": 0.4117647111415863,
							"b": 0.800000011920929,
							"a": 1
						}
					}
				},
				"red": {
					"100": {
						"value": {
							"r": 0.9882352948188782,
							"g": 0.9411764740943909,
							"b": 0.9490196108818054,
							"a": 1
						}
					},
					"200": {
						"value": {
							"r": 0.8156862854957581,
							"g": 0.007843137718737125,
							"b": 0.10588235408067703,
							"a": 1
						}
					}
				},
				"green": {
					"100": {
						"value": {
							"r": 0.9411764740943909,
							"g": 0.9607843160629272,
							"b": 0.9215686321258545,
							"a": 1
						}
					},
					"200": {
						"value": {
							"r": 0.23137255012989044,
							"g": 0.4745098054409027,
							"b": 0.007843137718737125,
							"a": 1
						}
					}
				},
				"brown": {
					"100": {
						"value": {
							"r": 0.9647058844566345,
							"g": 0.9333333373069763,
							"b": 0.9215686321258545,
							"a": 1
						}
					},
					"200": {
						"value": {
							"r": 0.6392157077789307,
							"g": 0.32549020648002625,
							"b": 0.18431372940540314,
							"a": 1
						}
					}
				},
				"yellow": {
					"100": {
						"value": {
							"r": 1,
							"g": 0.9686274528503418,
							"b": 0.8666666746139526,
							"a": 1
						}
					},
					"200": {
						"value": {
							"r": 1,
							"g": 0.9450980424880981,
							"b": 0.7058823704719543,
							"a": 1
						}
					},
					"300": {
						"value": {
							"r": 1,
							"g": 0.8588235378265381,
							"b": 0.2980392277240753,
							"a": 1
						}
					},
					"400": {
						"value": {
							"r": 1,
							"g": 0.7960784435272217,
							"b": 0,
							"a": 1
						}
					}
				},
				"grey": {
					"100": {
						"value": {
							"r": 0.9647058844566345,
							"g": 0.9686274528503418,
							"b": 0.9686274528503418,
							"a": 1
						}
					},
					"200": {
						"value": {
							"r": 0.8980392217636108,
							"g": 0.9058823585510254,
							"b": 0.9098039269447327,
							"a": 1
						}
					},
					"300": {
						"value": {
							"r": 0.4156862795352936,
							"g": 0.4627451002597809,
							"b": 0.48235294222831726,
							"a": 1
						}
					},
					"400": {
						"value": {
							"r": 0.2823529541492462,
							"g": 0.30588236451148987,
							"b": 0.3176470696926117,
							"a": 1
						}
					}
				},
				"transparent": {
					"value": {
						"r": 1,
						"g": 1,
						"b": 1,
						"a": 0
					}
				},
				"white": {
					"value": {
						"r": 1,
						"g": 1,
						"b": 1,
						"a": 1
					}
				}
			}
		},
		"erborian": {
			"color": {
				"blue": {
					"100": {
						"value": {
							"r": 0.9372549057006836,
							"g": 0.9529411792755127,
							"b": 0.9843137264251709,
							"a": 1
						}
					},
					"200": {
						"value": {
							"r": 0.1882352977991104,
							"g": 0.40392157435417175,
							"b": 0.772549033164978,
							"a": 1
						}
					}
				},
				"brown": {
					"100": {
						"value": {
							"r": 0.9647058844566345,
							"g": 0.9333333373069763,
							"b": 0.9215686321258545,
							"a": 1
						}
					},
					"200": {
						"value": {
							"r": 0.6392157077789307,
							"g": 0.32549020648002625,
							"b": 0.18431372940540314,
							"a": 1
						}
					}
				},
				"green": {
					"100": {
						"value": {
							"r": 0.9411764740943909,
							"g": 0.9607843160629272,
							"b": 0.9215686321258545,
							"a": 1
						}
					},
					"200": {
						"value": {
							"r": 0.23137255012989044,
							"g": 0.4745098054409027,
							"b": 0.007843137718737125,
							"a": 1
						}
					}
				},
				"red": {
					"100": {
						"value": {
							"r": 0.9882352948188782,
							"g": 0.9411764740943909,
							"b": 0.9490196108818054,
							"a": 1
						}
					},
					"200": {
						"value": {
							"r": 0.8039215803146362,
							"g": 0.3333333432674408,
							"b": 0.37254902720451355,
							"a": 1
						}
					},
					"300": {
						"value": {
							"r": 0.8156862854957581,
							"g": 0.007843137718737125,
							"b": 0.10588235408067703,
							"a": 1
						}
					}
				},
				"beige": {
					"100": {
						"value": {
							"r": 0.9725490212440491,
							"g": 0.9215686321258545,
							"b": 0.8745098114013672,
							"a": 1
						}
					},
					"200": {
						"value": {
							"r": 0.9803921580314636,
							"g": 0.8901960849761963,
							"b": 0.8156862854957581,
							"a": 1
						}
					}
				},
				"dark-blue": {
					"value": {
						"r": 0,
						"g": 0.062745101749897,
						"b": 0.13333334028720856,
						"a": 1
					}
				},
				"white": {
					"value": {
						"r": 1,
						"g": 1,
						"b": 1,
						"a": 1
					}
				},
				"grey": {
					"100": {
						"value": {
							"r": 0.9647058844566345,
							"g": 0.9686274528503418,
							"b": 0.9686274528503418,
							"a": 1
						}
					},
					"200": {
						"value": {
							"r": 0.8980392217636108,
							"g": 0.9058823585510254,
							"b": 0.9098039269447327,
							"a": 1
						}
					},
					"300": {
						"value": {
							"r": 0.4156862795352936,
							"g": 0.4627451002597809,
							"b": 0.48235294222831726,
							"a": 1
						}
					},
					"400": {
						"value": {
							"r": 0.2823529541492462,
							"g": 0.30588236451148987,
							"b": 0.3176470696926117,
							"a": 1
						}
					}
				},
				"transparent": {
					"value": {
						"r": 1,
						"g": 1,
						"b": 1,
						"a": 0
					}
				}
			}
		},
		"erborian-us": {
			"color": {
				"blue": {
					"100": {
						"value": {
							"r": 0.9372549057006836,
							"g": 0.9529411792755127,
							"b": 0.9843137264251709,
							"a": 1
						}
					},
					"200": {
						"value": {
							"r": 0.1882352977991104,
							"g": 0.40392157435417175,
							"b": 0.772549033164978,
							"a": 1
						}
					}
				},
				"green": {
					"100": {
						"value": {
							"r": 0.9411764740943909,
							"g": 0.9607843160629272,
							"b": 0.9215686321258545,
							"a": 1
						}
					},
					"200": {
						"value": {
							"r": 0.23137255012989044,
							"g": 0.4745098054409027,
							"b": 0.007843137718737125,
							"a": 1
						}
					}
				},
				"red": {
					"100": {
						"value": {
							"r": 0.9882352948188782,
							"g": 0.9411764740943909,
							"b": 0.9490196108818054,
							"a": 1
						}
					},
					"200": {
						"value": {
							"r": 0.8156862854957581,
							"g": 0.007843137718737125,
							"b": 0.10588235408067703,
							"a": 1
						}
					}
				},
				"brown": {
					"100": {
						"value": {
							"r": 0.9647058844566345,
							"g": 0.9333333373069763,
							"b": 0.9215686321258545,
							"a": 1
						}
					},
					"200": {
						"value": {
							"r": 0.6392157077789307,
							"g": 0.32549020648002625,
							"b": 0.18431372940540314,
							"a": 1
						}
					}
				},
				"dark-blue": {
					"value": {
						"r": 0.04313725605607033,
						"g": 0.125490203499794,
						"b": 0.1764705926179886,
						"a": 1
					}
				},
				"beige": {
					"100": {
						"value": {
							"r": 0.9686274528503418,
							"g": 0.9333333373069763,
							"b": 0.9098039269447327,
							"a": 1
						}
					},
					"200": {
						"value": {
							"r": 0.9529411792755127,
							"g": 0.8980392217636108,
							"b": 0.8666666746139526,
							"a": 1
						}
					}
				},
				"white": {
					"value": {
						"r": 1,
						"g": 1,
						"b": 1,
						"a": 1
					}
				},
				"grey": {
					"100": {
						"value": {
							"r": 0.9647058844566345,
							"g": 0.9686274528503418,
							"b": 0.9686274528503418,
							"a": 1
						}
					},
					"200": {
						"value": {
							"r": 0.8980392217636108,
							"g": 0.9058823585510254,
							"b": 0.9215686321258545,
							"a": 1
						}
					},
					"300": {
						"value": {
							"r": 0.4156862795352936,
							"g": 0.4627451002597809,
							"b": 0.48235294222831726,
							"a": 1
						}
					},
					"400": {
						"value": {
							"r": 0.2823529541492462,
							"g": 0.30588236451148987,
							"b": 0.3176470696926117,
							"a": 1
						}
					}
				},
				"transparent": {
					"value": {
						"r": 1,
						"g": 1,
						"b": 1,
						"a": 0
					}
				}
			}
		},
		"melvita": {
			"color": {
				"green": {
					"100": {
						"value": {
							"r": 0.9411764740943909,
							"g": 0.9607843160629272,
							"b": 0.9215686321258545,
							"a": 1
						}
					},
					"200": {
						"value": {
							"r": 0.8313725590705872,
							"g": 0.8901960849761963,
							"b": 0.8117647171020508,
							"a": 1
						}
					},
					"300": {
						"value": {
							"r": 0.23137255012989044,
							"g": 0.4745098054409027,
							"b": 0.007843137718737125,
							"a": 1
						}
					},
					"400": {
						"value": {
							"r": 0.21176470816135406,
							"g": 0.3019607961177826,
							"b": 0.21568627655506134,
							"a": 1
						}
					},
					"500": {
						"value": {
							"r": 0.10588235408067703,
							"g": 0.2078431397676468,
							"b": 0.10980392247438431,
							"a": 1
						}
					}
				},
				"blue": {
					"100": {
						"value": {
							"r": 0.9372549057006836,
							"g": 0.9529411792755127,
							"b": 0.9843137264251709,
							"a": 1
						}
					},
					"200": {
						"value": {
							"r": 0.1882352977991104,
							"g": 0.40392157435417175,
							"b": 0.772549033164978,
							"a": 1
						}
					}
				},
				"brown": {
					"100": {
						"value": {
							"r": 0.9647058844566345,
							"g": 0.9333333373069763,
							"b": 0.9215686321258545,
							"a": 1
						}
					},
					"200": {
						"value": {
							"r": 0.6392157077789307,
							"g": 0.32549020648002625,
							"b": 0.18431372940540314,
							"a": 1
						}
					}
				},
				"red": {
					"100": {
						"value": {
							"r": 0.9882352948188782,
							"g": 0.9411764740943909,
							"b": 0.9490196108818054,
							"a": 1
						}
					},
					"200": {
						"value": {
							"r": 0.8156862854957581,
							"g": 0.007843137718737125,
							"b": 0.10588235408067703,
							"a": 1
						}
					}
				},
				"pink": {
					"100": {
						"value": {
							"r": 0.95686274766922,
							"g": 0.9019607901573181,
							"b": 0.8901960849761963,
							"a": 1
						}
					},
					"200": {
						"value": {
							"r": 0.9411764740943909,
							"g": 0.8666666746139526,
							"b": 0.8470588326454163,
							"a": 1
						}
					},
					"300": {
						"value": {
							"r": 0.8313725590705872,
							"g": 0,
							"b": 0.49803921580314636,
							"a": 1
						}
					}
				},
				"white": {
					"value": {
						"r": 1,
						"g": 1,
						"b": 1,
						"a": 1
					}
				},
				"grey": {
					"100": {
						"value": {
							"r": 0.9647058844566345,
							"g": 0.9686274528503418,
							"b": 0.9686274528503418,
							"a": 1
						}
					},
					"200": {
						"value": {
							"r": 0.8980392217636108,
							"g": 0.9058823585510254,
							"b": 0.9098039269447327,
							"a": 1
						}
					},
					"300": {
						"value": {
							"r": 0.4156862795352936,
							"g": 0.4627451002597809,
							"b": 0.48235294222831726,
							"a": 1
						}
					},
					"400": {
						"value": {
							"r": 0.2823529541492462,
							"g": 0.30588236451148987,
							"b": 0.3176470696926117,
							"a": 1
						}
					}
				},
				"transparent": {
					"value": {
						"r": 1,
						"g": 1,
						"b": 1,
						"a": 0
					}
				}
			}
		}
	},
	"semantic": {
		"loccitane": {
			"color": {
				"text": {
					"default": {
						"value": "{color.dark-blue}"
					},
					"success": {
						"value": "{color.green.200}"
					},
					"warning": {
						"value": "{color.brown.200}"
					},
					"error": {
						"value": "{color.red.200}"
					},
					"disabled": {
						"value": "{color.grey.300}"
					},
					"secondary": {
						"value": "{color.grey.400}"
					},
					"info": {
						"value": "{color.blue.200}"
					}
				},
				"border": {
					"brand": {
						"value": "{color.grey.200}"
					},
					"brand.hover": {
						"value": "{color.grey.300}"
					},
					"selected": {
						"value": "{color.dark-blue}"
					},
					"default": {
						"value": "{color.grey.400}"
					},
					"disabled": {
						"value": "{color.grey.200}"
					},
					"success": {
						"value": "{color.green.200}"
					},
					"warning": {
						"value": "{color.brown.200}"
					},
					"error": {
						"value": "{color.red.200}"
					},
					"info": {
						"value": "{color.blue.200}"
					}
				},
				"icon": {
					"success": {
						"value": "{color.green.200}"
					},
					"warning": {
						"value": "{color.brown.200}"
					},
					"error": {
						"value": "{color.red.200}"
					},
					"info": {
						"value": "{color.blue.200}"
					}
				},
				"bg": {
					"value": "{color.white}"
				},
				"bg.hover": {
					"value": "{color.grey.100}"
				},
				"secondary": {
					"value": "{color.off-white}"
				},
				"bg.secondary": {
					"value": "{color.grey.100}"
				},
				"bg.success": {
					"value": "{color.green.100}"
				},
				"bg.warning": {
					"value": "{color.brown.100}"
				},
				"bg.error": {
					"value": "{color.red.100}"
				},
				"bg.info": {
					"value": "{color.blue.100}"
				}
			},
			"space": {
				"0": {
					"value": 0
				},
				"100": {
					"value": 8
				},
				"150": {
					"value": 12
				},
				"200": {
					"value": 16
				},
				"300": {
					"value": 24
				},
				"400": {
					"value": 32
				},
				"500": {
					"value": 40
				},
				"600": {
					"value": 48
				},
				"700": {
					"value": 56
				},
				"800": {
					"value": 64
				},
				"900": {
					"value": 72
				},
				"1000": {
					"value": 80
				},
				"025": {
					"value": 2
				},
				"050": {
					"value": 4
				}
			},
			"radius": {
				"0": {
					"value": 0
				},
				"100": {
					"value": 8
				},
				"200": {
					"value": 16
				},
				"050": {
					"value": 4
				},
				"full": {
					"value": 9999
				}
			},
			"font": {
				"size": {
					"body-s": {
						"value": 12
					},
					"ui": {
						"value": 14
					}
				},
				"line-height": {
					"body-s": {
						"value": 16
					},
					"ui": {
						"value": 20
					}
				},
				"family": {
					"sans": {
						"value": "LOccitaneSans"
					}
				},
				"weight": {
					"ui": {
						"value": 500
					}
				},
				"heading": {
					"large": {
						"bold": {
							"value": "String value"
						}
					}
				}
			},
			"border": {
				"width": {
					"0": {
						"value": 0
					},
					"1": {
						"value": 1
					},
					"2": {
						"value": 2
					},
					"3": {
						"value": 3
					}
				}
			}
		},
		"erborian-us": {
			"color": {
				"text": {
					"default": {
						"value": "{color.dark-blue}"
					},
					"success": {
						"value": "{color.green.200}"
					},
					"warning": {
						"value": "{color.brown.200}"
					},
					"error": {
						"value": "{color.red.200}"
					},
					"disabled": {
						"value": "{color.grey.300}"
					},
					"secondary": {
						"value": "{color.grey.400}"
					},
					"info": {
						"value": "{color.blue.200}"
					}
				},
				"border": {
					"brand": {
						"value": "{color.dark-blue}"
					},
					"brand.hover": {
						"value": "{color.grey.400}"
					},
					"selected": {
						"value": "{color.dark-blue}"
					},
					"default": {
						"value": "{color.grey.400}"
					},
					"disabled": {
						"value": "{color.grey.200}"
					},
					"success": {
						"value": "{color.green.200}"
					},
					"warning": {
						"value": "{color.brown.200}"
					},
					"error": {
						"value": "{color.red.200}"
					},
					"info": {
						"value": "{color.blue.200}"
					}
				},
				"icon": {
					"success": {
						"value": "{color.green.200}"
					},
					"warning": {
						"value": "{color.brown.200}"
					},
					"error": {
						"value": "{color.red.200}"
					},
					"info": {
						"value": "{color.blue.200}"
					}
				},
				"bg": {
					"value": "{color.white}"
				},
				"bg.hover": {
					"value": "{color.grey.100}"
				},
				"secondary": {
					"value": "{color.transparent}"
				},
				"bg.secondary": {
					"value": "{color.grey.100}"
				},
				"bg.success": {
					"value": "{color.green.100}"
				},
				"bg.warning": {
					"value": "{color.brown.100}"
				},
				"bg.error": {
					"value": "{color.red.100}"
				},
				"bg.info": {
					"value": "{color.blue.100}"
				}
			},
			"space": {
				"0": {
					"value": 0
				},
				"100": {
					"value": 8
				},
				"150": {
					"value": 12
				},
				"200": {
					"value": 16
				},
				"300": {
					"value": 24
				},
				"400": {
					"value": 32
				},
				"500": {
					"value": 40
				},
				"600": {
					"value": 48
				},
				"700": {
					"value": 56
				},
				"800": {
					"value": 64
				},
				"900": {
					"value": 72
				},
				"1000": {
					"value": 80
				},
				"025": {
					"value": 2
				},
				"050": {
					"value": 4
				}
			},
			"radius": {
				"0": {
					"value": 0
				},
				"100": {
					"value": 8
				},
				"200": {
					"value": 16
				},
				"050": {
					"value": 4
				},
				"full": {
					"value": 9999
				}
			},
			"font": {
				"size": {
					"body-s": {
						"value": 14
					},
					"ui": {
						"value": 16
					}
				},
				"line-height": {
					"body-s": {
						"value": 18
					},
					"ui": {
						"value": 22
					}
				},
				"family": {
					"sans": {
						"value": "HKGrotesk"
					}
				},
				"weight": {
					"ui": {
						"value": 500
					}
				},
				"heading": {
					"large": {
						"bold": {
							"value": "String value"
						}
					}
				}
			},
			"border": {
				"width": {
					"0": {
						"value": 0
					},
					"1": {
						"value": 1
					},
					"2": {
						"value": 2
					},
					"3": {
						"value": 3
					}
				}
			}
		},
		"erborian": {
			"color": {
				"text": {
					"default": {
						"value": "{color.dark-blue}"
					},
					"success": {
						"value": "{color.green.200}"
					},
					"warning": {
						"value": "{color.brown.200}"
					},
					"error": {
						"value": "{color.red.300}"
					},
					"disabled": {
						"value": "{color.grey.300}"
					},
					"secondary": {
						"value": "{color.grey.400}"
					},
					"info": {
						"value": "{color.blue.200}"
					}
				},
				"border": {
					"brand": {
						"value": "{color.red.300}"
					},
					"brand.hover": {
						"value": "{color.red.300}"
					},
					"selected": {
						"value": "{color.dark-blue}"
					},
					"default": {
						"value": "{color.grey.400}"
					},
					"disabled": {
						"value": "{color.grey.200}"
					},
					"success": {
						"value": "{color.green.200}"
					},
					"warning": {
						"value": "{color.brown.200}"
					},
					"error": {
						"value": "{color.red.300}"
					},
					"info": {
						"value": "{color.blue.200}"
					}
				},
				"icon": {
					"success": {
						"value": "{color.green.200}"
					},
					"warning": {
						"value": "{color.brown.200}"
					},
					"error": {
						"value": "{color.red.300}"
					},
					"info": {
						"value": "{color.blue.200}"
					}
				},
				"bg": {
					"value": "{color.white}"
				},
				"bg.hover": {
					"value": "{color.grey.100}"
				},
				"secondary": {
					"value": "{color.white}"
				},
				"bg.secondary": {
					"value": "{color.grey.100}"
				},
				"bg.success": {
					"value": "{color.green.100}"
				},
				"bg.warning": {
					"value": "{color.brown.100}"
				},
				"bg.error": {
					"value": "{color.red.100}"
				},
				"bg.info": {
					"value": "{color.blue.100}"
				}
			},
			"space": {
				"0": {
					"value": 0
				},
				"100": {
					"value": 8
				},
				"150": {
					"value": 12
				},
				"200": {
					"value": 16
				},
				"300": {
					"value": 24
				},
				"400": {
					"value": 32
				},
				"500": {
					"value": 40
				},
				"600": {
					"value": 48
				},
				"700": {
					"value": 56
				},
				"800": {
					"value": 64
				},
				"900": {
					"value": 72
				},
				"1000": {
					"value": 80
				},
				"025": {
					"value": 2
				},
				"050": {
					"value": 4
				}
			},
			"radius": {
				"0": {
					"value": 0
				},
				"100": {
					"value": 8
				},
				"200": {
					"value": 16
				},
				"050": {
					"value": 4
				},
				"full": {
					"value": 9999
				}
			},
			"font": {
				"size": {
					"body-s": {
						"value": 14
					},
					"ui": {
						"value": 16
					}
				},
				"line-height": {
					"body-s": {
						"value": 18
					},
					"ui": {
						"value": 22
					}
				},
				"family": {
					"sans": {
						"value": "HKGrotesk"
					}
				},
				"weight": {
					"ui": {
						"value": 500
					}
				},
				"heading": {
					"large": {
						"bold": {
							"value": "String value"
						}
					}
				}
			},
			"border": {
				"width": {
					"0": {
						"value": 0
					},
					"1": {
						"value": 1
					},
					"2": {
						"value": 2
					},
					"3": {
						"value": 3
					}
				}
			}
		},
		"melvita": {
			"color": {
				"text": {
					"default": {
						"value": "{color.green.500}"
					},
					"success": {
						"value": "{color.green.300}"
					},
					"warning": {
						"value": "{color.brown.200}"
					},
					"error": {
						"value": "{color.red.200}"
					},
					"disabled": {
						"value": "{color.grey.300}"
					},
					"secondary": {
						"value": "{color.grey.400}"
					},
					"info": {
						"value": "{color.blue.200}"
					}
				},
				"border": {
					"brand": {
						"value": "{color.green.500}"
					},
					"brand.hover": {
						"value": "{color.green.400}"
					},
					"selected": {
						"value": "{color.grey.400}"
					},
					"default": {
						"value": "{color.grey.400}"
					},
					"disabled": {
						"value": "{color.grey.200}"
					},
					"success": {
						"value": "{color.green.300}"
					},
					"warning": {
						"value": "{color.brown.200}"
					},
					"error": {
						"value": "{color.red.200}"
					},
					"info": {
						"value": "{color.blue.200}"
					}
				},
				"icon": {
					"success": {
						"value": "{color.green.300}"
					},
					"warning": {
						"value": "{color.brown.200}"
					},
					"error": {
						"value": "{color.red.200}"
					},
					"info": {
						"value": "{color.blue.200}"
					}
				},
				"bg": {
					"value": "{color.white}"
				},
				"bg.hover": {
					"value": "{color.grey.100}"
				},
				"secondary": {
					"value": "{color.white}"
				},
				"bg.secondary": {
					"value": "{color.grey.100}"
				},
				"bg.success": {
					"value": "{color.green.100}"
				},
				"bg.warning": {
					"value": "{color.brown.100}"
				},
				"bg.error": {
					"value": "{color.red.100}"
				},
				"bg.info": {
					"value": "{color.blue.100}"
				}
			},
			"space": {
				"0": {
					"value": 0
				},
				"100": {
					"value": 8
				},
				"150": {
					"value": 12
				},
				"200": {
					"value": 16
				},
				"300": {
					"value": 24
				},
				"400": {
					"value": 32
				},
				"500": {
					"value": 40
				},
				"600": {
					"value": 48
				},
				"700": {
					"value": 56
				},
				"800": {
					"value": 64
				},
				"900": {
					"value": 72
				},
				"1000": {
					"value": 80
				},
				"025": {
					"value": 2
				},
				"050": {
					"value": 4
				}
			},
			"radius": {
				"0": {
					"value": 0
				},
				"100": {
					"value": 8
				},
				"200": {
					"value": 16
				},
				"050": {
					"value": 4
				},
				"full": {
					"value": 9999
				}
			},
			"font": {
				"size": {
					"body-s": {
						"value": 14
					},
					"ui": {
						"value": 16
					}
				},
				"line-height": {
					"body-s": {
						"value": 18
					},
					"ui": {
						"value": 22
					}
				},
				"family": {
					"sans": {
						"value": "FuturaStd"
					}
				},
				"weight": {
					"ui": {
						"value": 500
					}
				},
				"heading": {
					"large": {
						"bold": {
							"value": "String value"
						}
					}
				}
			},
			"border": {
				"width": {
					"0": {
						"value": 0
					},
					"1": {
						"value": 1
					},
					"2": {
						"value": 2
					},
					"3": {
						"value": 3
					}
				}
			}
		}
	}
}