{
	"button": {
		"primary": {
			"text": {
				"default": {
					"value": "{color.white}"
				},
				"hover": {
					"value": "{color.white}"
				},
				"disabled": {
					"value": "{color.text.disabled}"
				}
			},
			"bg": {
				"default": {
					"value": "{color.green.500}"
				},
				"hover": {
					"value": "{color.green.400}"
				},
				"disabled": {
					"value": "{color.grey.100}"
				}
			},
			"border-width": {
				"disabled": {
					"value": "{border.width.1}"
				}
			},
			"border": {
				"default": {
					"value": "{color.transparent}"
				},
				"hover": {
					"value": "{color.transparent}"
				},
				"disabled": {
					"value": "{color.transparent}"
				}
			}
		},
		"radius": {
			"value": "{radius.050}"
		},
		"secondary": {
			"text": {
				"default": {
					"value": "{color.green.500}"
				},
				"hover": {
					"value": "{color.green.500}"
				},
				"disabled": {
					"value": "{color.text.disabled}"
				}
			},
			"bg": {
				"default": {
					"value": "{color.pink.200}"
				},
				"hover": {
					"value": "{color.pink.100}"
				},
				"disabled": {
					"value": "{color.grey.100}"
				}
			},
			"border-width": {
				"disabled": {
					"value": "{border.width.1}"
				},
				"default": {
					"value": "{border.width.1}"
				}
			},
			"border": {
				"default": {
					"value": "{color.transparent}"
				},
				"hover": {
					"value": "{color.transparent}"
				},
				"disabled": {
					"value": "{color.transparent}"
				}
			}
		},
		"tertiary": {
			"text": {
				"default": {
					"value": "{color.green.500}"
				},
				"hover": {
					"value": "{color.green.500}"
				},
				"disabled": {
					"value": "{color.text.disabled}"
				}
			},
			"bg": {
				"default": {
					"value": "{color.white}"
				},
				"hover": {
					"value": "{color.green.200}"
				},
				"disabled": {
					"value": "{color.grey.100}"
				}
			},
			"border-width": {
				"disabled": {
					"value": "{border.width.1}"
				},
				"default": {
					"value": "{border.width.1}"
				}
			},
			"border": {
				"default": {
					"value": "{color.green.400}"
				},
				"hover": {
					"value": "{color.green.400}"
				},
				"disabled": {
					"value": "{color.transparent}"
				}
			}
		},
		"padding-inline": {
			"value": "{space.300}"
		},
		"padding-block": {
			"value": "{space.150}"
		}
	},
	"card": {
		"radius": {
			"value": "{radius.100}"
		},
		"border": {
			"width": {
				"value": "{border.width.1}"
			}
		}
	},
	"tag": {
		"bg": {
			"default": {
				"value": "{color.bg}"
			},
			"hover": {
				"value": "{color.grey.100}"
			},
			"active": {
				"value": "{color.green.400}"
			},
			"disabled": {
				"value": "{color.grey.100}"
			}
		},
		"text": {
			"default": {
				"value": "{color.text.default}"
			},
			"hover": {
				"value": "{color.text.default}"
			},
			"active": {
				"value": "{color.white}"
			},
			"disabled": {
				"value": "{color.text.disabled}"
			}
		},
		"border": {
			"default": {
				"value": "{color.border.default}"
			},
			"hover": {
				"value": "{color.border.default}"
			},
			"active": {
				"value": "{color.transparent}"
			},
			"disabled": {
				"value": "{color.border.disabled}"
			}
		}
	},
	"feedback-message": {
		"radius": {
			"value": "{radius.050}"
		}
	},
	"wishlist-button": {
		"radius": {
			"value": "{radius.050}"
		},
		"bg": {
			"default": {
				"value": "{color.white}"
			},
			"selected": {
				"value": "{color.pink.100}"
			}
		},
		"border": {
			"value": "{color.border.default}"
		},
		"width": {
			"value": 48
		},
		"icon": {
			"fill": {
				"hover": {
					"value": "{color.green.400}"
				},
				"selected": {
					"value": "{color.green.500}"
				}
			},
			"width": {
				"value": 28
			},
			"stroke": {
				"value": "{color.grey.400}"
			}
		}
	}
}